start
31-05-2017 13:06:28   
31-05-2017 13:06:33   
07-06-2017 15:31:25   TiCo:0 ,
07-06-2017 15:34:37   TiCo:0 ,
07-06-2017 16:14:04   TiCo:0 ,
07-06-2017 16:14:10   TiCo:0 ,
08-06-2017 11:33:55   TiCo:0 ,
08-06-2017 11:34:02   TiCo:0 ,
08-06-2017 13:30:45   TiCo:0 ,
08-06-2017 14:05:07   TiCo:0 ,
08-06-2017 15:01:02   TiCo:0 ,
08-06-2017 15:01:09   TiCo:0 ,
08-06-2017 15:38:06   TiCo:0 ,
08-06-2017 15:38:20   TiCo:0 ,
13-06-2017 13:41:42   TiCo:0 ,
13-06-2017 14:07:35   TiCo:0 ,
13-06-2017 14:18:42   TiCo:0 ,
13-06-2017 14:20:46   TiCo:0 ,
13-06-2017 14:22:16   TiCo:0 ,
14-06-2017 13:05:11   TiCo:0 ,
16-06-2017 10:15:46   TiCo:0 ,
24-06-2017 11:31:22   TiCo:0 ,
24-06-2017 12:43:10   TiCo:0 ,
24-06-2017 13:26:30   TiCo:0 ,
26-06-2017 15:18:32   TiCo:0 ,
27-06-2017 09:20:57   TiCo:0 ,
28-06-2017 09:02:43   TiCo:0 ,
24-08-2017 14:01:08   
24-08-2017 14:01:17   
24-08-2017 14:01:21   
24-08-2017 15:06:29   EWE:0 ,
24-08-2017 15:06:47   EWE:0 ,
24-08-2017 15:07:15   EWE:0 ,
25-08-2017 09:32:58   EWE:0 ,
25-08-2017 09:50:33   EWE:0 ,
25-08-2017 09:52:37   EWE:0 ,
25-08-2017 10:00:24   EWE:0 ,
25-08-2017 10:01:47   EWE:0 ,
25-08-2017 10:03:35   EWE:0 ,
25-08-2017 13:18:35   EWE:0 ,
25-08-2017 13:21:48   EWE:0 ,
25-08-2017 15:19:29   EWE:0 ,
25-08-2017 15:31:07   EWE:0 ,
25-08-2017 15:34:17   EWE:0 ,
25-08-2017 15:37:08   EWE:0 ,
25-08-2017 15:39:40   EWE:0 ,
25-08-2017 15:40:33   EWE:0 ,
25-08-2017 15:41:04   EWE:0 ,
28-08-2017 09:11:02   EWE:0 ,
28-08-2017 09:12:25   EWE:0 ,
28-08-2017 09:13:56   EWE:0 ,
28-08-2017 09:15:11   EWE:0 ,
28-08-2017 09:26:40   EWE:0 ,
28-08-2017 09:27:42   EWE:0 ,
28-08-2017 10:49:47   EWE:0 ,
28-08-2017 10:58:53   EWE:0 ,
29-08-2017 11:00:30   EWE:0 ,
29-08-2017 11:04:03   EWE:0 ,
29-08-2017 11:08:58   EWE:0 ,
29-08-2017 11:14:05   EWE:0 ,
29-08-2017 11:15:31   EWE:0 ,
05-09-2017 11:33:18   EWE:0 , OFY:0 , KEPROM:0 ,
05-09-2017 12:08:26   EWE:0 , OFY:0 , KEPROM:0 ,
05-09-2017 12:08:44   EWE:0 , OFY:0 , KEPROM:0 ,
05-09-2017 12:09:03   EWE:0 , OFY:0 , KEPROM:0 ,
05-09-2017 12:09:22   EWE:0 , OFY:0 , KEPROM:0 ,
05-09-2017 12:15:22   EWE:0 , OFY:0 , KEPROM:0 ,
05-09-2017 12:20:55   EWE:0 , OFY:0 , KEPROM:0 ,
05-09-2017 12:27:12   EWE:0 , OFY:0 , KEPROM:0 ,
05-09-2017 12:27:31   EWE:0 , OFY:0 , KEPROM:0 ,
05-09-2017 12:30:53   EWE:0 , OFY:0 , KEPROM:0 ,
05-09-2017 12:32:09   EWE:0 , OFY:0 , KEPROM:0 ,
05-09-2017 12:32:42   EWE:0 , OFY:0 , KEPROM:0 , KimTek:0 ,
05-09-2017 12:47:34   EWE:0 , OFY:0 , KEPROM:0 , KimTek:0 ,
05-09-2017 13:17:57   EWE:0 , OFY:0 , KEPROM:0 , KimTek:0 ,
05-09-2017 13:18:25   EWE:0 , OFY:0 , KEPROM:0 , KimTek:0 ,
05-09-2017 13:19:19   EWE:0 , OFY:0 , KEPROM:0 , KimTek:0 ,
06-09-2017 10:31:50   EWE:0 , OFY:0 , KEPROM:0 , KimTek:0 ,
06-09-2017 10:32:13   EWE:0 , OFY:0 , KEPROM:0 , KimTek:0 ,
06-09-2017 11:44:46   \n \n \n \nEWE: ok, OFY: ok, KEPROM: ok, KimTek: ok,
 \n \n \n \n 06-09-2017 11:46:58   EWE: ok, OFY: ok, KEPROM: ok, KimTek: ok,
 
 
 
 
 06-09-2017 11:48:18   EWE: ok, OFY: ok, KEPROM: ok, KimTek: ok,
